Intro Stats with R - Solutions Activity Descriptive Stats
…
    Published

      May 23, 2023

These are some solutions, you should do the activity first.

We should always attempt to understand our data first.

view births14 in the chunk below. You can also use the ? operator to learn more.

#view(births14)
births14

# A tibble: 1,000 × 13
    fage  mage mature     weeks premie visits gained weight lowbirthweight sex  
   <int> <dbl> <chr>      <dbl> <chr>   <dbl>  <dbl>  <dbl> <chr>          <chr>
 1    34    34 younger m…    37 full …     14     28   6.96 not low        male 
 2    36    31 younger m…    41 full …     12     41   8.86 not low        fema…
 3    37    36 mature mom    37 full …     10     28   7.51 not low        fema…
 4    NA    16 younger m…    38 full …     NA     29   6.19 not low        male 
 5    32    31 younger m…    36 premie     12     48   6.75 not low        fema…
 6    32    26 younger m…    39 full …     14     45   6.69 not low        fema…
 7    37    36 mature mom    36 premie     10     20   6.13 not low        fema…
 8    29    24 younger m…    40 full …     13     65   6.74 not low        male 
 9    30    32 younger m…    39 full …     15     25   8.94 not low        fema…
10    29    26 younger m…    39 full …     11     22   9.12 not low        male 
# ℹ 990 more rows
# ℹ 3 more variables: habit <chr>, marital <chr>, whitemom <chr>
…
